…
<img src="{{< blogdown/postref >}}index_files/figure-html/unnamed-chunk-5-1.png" width="672" />

## Warning: NAs introduced by coercion

<img src="{{< blogdown/postref >}}index_files/figure-html/unnamed-chunk-6-1.png" width="672" />
The above graph compares district level expert predictions to the actual national voteshare. Compared to the actual national voteshare, the expert predictions seem to be miscategorizing some states as safe, when in reality they are not. For example, the experts categorized California’s first district as Republican safe, when in reality it was taken by the Democrats. This is also seen in California’s 3rd district, in addition to other districts. Overall, experts seem to experience overconfidence in their predictions. If I choose to incorporate district level expert predictions in my final, I will use other factors to lessen the effect of expert overconfidence.

<img src="{{< blogdown/postref >}}index_files/figure-html/unnamed-chunk-7-1.png" width="672" />
The above graph demonstrates the incumbency effect. From year 1948 to year 2020 the incumbent candidate is reelect roughly 80% of the time. Incumbents have a high chance of reelection. This graph does not account for incumbents who face no challenger, but overall it proves that incumbents have a high reelection rate.

## # A tibble: 16,067 × 21
##     ...1  ...2 office  year state   st_fips district_num distr…¹ winne…² RepVo…³
##    <dbl> <dbl> <chr>  <dbl> <chr>   <chr>   <chr>        <chr>   <chr>     <dbl>
##  1     1     1 House   2020 Alabama 01      01           AL01    R        211825
##  2     2     2 House   2020 Alabama 01      02           AL02    R        197996
##  3     3     3 House   2020 Alabama 01      03           AL03    R        217384
##  4     4     4 House   2020 Alabama 01      04           AL04    R        261553
##  5     5     5 House   2020 Alabama 01      05           AL05    R        253094
##  6     6     6 House   2020 Alabama 01      06           AL06    R        274160
##  7     7     7 House   2020 Alabama 01      07           AL07    D             0
##  8     8     8 House   2020 Alaska  02      00           AK00    R        192126
##  9     9     9 House   2020 Arizona 04      01           AZ01    D        176709
## 10    10    10 House   2020 Arizona 04      02           AZ02    D        170975
## # … with 16,057 more rows, 11 more variables: RepCandidate <chr>,
## #   RepStatus <chr>, DemVotes <dbl>, DemCandidate <chr>, DemStatus <chr>,
## #   RepVotesMajorPercent <dbl>, DemVotesMajorPercent <dbl>,
## #   winner_candidate <chr>, winner_candidate_inc <chr>, st_cd_fips <chr>,
## #   president_party <chr>, and abbreviated variable names ¹​district_id,
## #   ²​winner_party, ³​RepVotes
…
