…
data$Rpercent.vote <- ((data$RepVotes/ (data$DemVotes + data$RepVotes)) *100)
data$Rpercent.seats <- ((data$RepWon/ (data$DemWon + data$RepWon)) *100)
data$difference <- abs(data$Rpercent.vote - data$Rpercent.seats)

data 

## # A tibble: 49 × 9
##    raceYear State   RepVotes DemVotes RepWon DemWon Rpercent.vote Rpercent.seats
##       <dbl> <chr>      <dbl>    <dbl>  <dbl>  <dbl>         <dbl>          <dbl>
##  1     2020 Alabama  1416012   383067      6      0          78.7          100  
##  2     2020 Alaska    192126   159856      1      0          54.6          100  
##  3     2020 Arizona  1641516  1629318      4      5          50.2           44.4
##  4     2020 Califo…  5640667 11084234     11     42          33.7           20.8
##  5     2020 Colora…  1378248  1679052      3      4          45.1           42.9
##  6     2020 Connec…   682680  1060968      0      5          39.2            0  
##  7     2020 Delawa…   196392   281382      0      1          41.1            0  
##  8     2020 Florida  5469164  4942287     16     11          52.5           59.3
##  9     2020 Georgia  2490396  2393089      8      6          51.0           57.1
## 10     2020 Hawaii    155215   354762      0      2          30.4            0  
## # … with 39 more rows, and 1 more variable: difference <dbl>
…
